         run       event       nTopo   nIdTracks  nTauTracks       nTaus      nMuons       nElec   nTrueElec   nFakeElec       nPhot   nTruePhot   nFakePhot
      327265   186524665         510         420          84          10           1           2           0           2          16           0          16
      327265   186525031         522         439          69           8           1           2           0           2           8           0           8
      327265   186542447         419         296          24           5           0           2           0           2           7           0           7
      327265   186543405         511         319          42           7           0           2           0           2          11           0          11
      327265   186548387         653         514         112          11           0           4           0           4          20           0          20
